/* XPM */
static char * ghextris_icon_xpm[] = {
"32 29 117 2",
"  	c None",
". 	c #000000",
"+ 	c #252525",
"@ 	c #2F2F2F",
"# 	c #242424",
"$ 	c #6E6E6E",
"% 	c #737373",
"& 	c #565656",
"* 	c #1D1D1D",
"= 	c #717171",
"- 	c #0A0A0A",
"; 	c #6F6F6F",
"> 	c #171717",
", 	c #585858",
"' 	c #636363",
") 	c #4E4E4E",
"! 	c #0B0B0B",
"~ 	c #414141",
"{ 	c #383838",
"] 	c #292929",
"^ 	c #666666",
"/ 	c #1A1A1A",
"( 	c #0D0D0D",
"_ 	c #111111",
": 	c #0C0C0C",
"< 	c #2D2D2D",
"[ 	c #212121",
"} 	c #272727",
"| 	c #191919",
"1 	c #050505",
"2 	c #6B6B6B",
"3 	c #5E5E5E",
"4 	c #2B2B2B",
"5 	c #676767",
"6 	c #161616",
"7 	c #333333",
"8 	c #595959",
"9 	c #3E3E3E",
"0 	c #040404",
"a 	c #4B4B4B",
"b 	c #373737",
"c 	c #656565",
"d 	c #110B00",
"e 	c #946000",
"f 	c #C17D00",
"g 	c #AA6E00",
"h 	c #150E00",
"i 	c #4D4D4D",
"j 	c #575757",
"k 	c #434343",
"l 	c #232323",
"m 	c #4F3300",
"n 	c #FFA500",
"o 	c #714900",
"p 	c #282828",
"q 	c #535353",
"r 	c #E09100",
"s 	c #FCA300",
"t 	c #0C0800",
"u 	c #727272",
"v 	c #707070",
"w 	c #626262",
"x 	c #131313",
"y 	c #492F00",
"z 	c #F39E00",
"A 	c #634000",
"B 	c #1B1B1B",
"C 	c #070707",
"D 	c #070400",
"E 	c #7A4F00",
"F 	c #A76C00",
"G 	c #905D00",
"H 	c #090600",
"I 	c #503400",
"J 	c #D08700",
"K 	c #EE9A00",
"L 	c #0B0700",
"M 	c #180F00",
"N 	c #261800",
"O 	c #221600",
"P 	c #1B1100",
"Q 	c #1D1300",
"R 	c #231700",
"S 	c #D18700",
"T 	c #F69F00",
"U 	c #432C00",
"V 	c #E39300",
"W 	c #3A2500",
"X 	c #322000",
"Y 	c #6C4600",
"Z 	c #AC6F00",
"` 	c #613F00",
" .	c #7D5100",
"..	c #915E00",
"+.	c #120B00",
"@.	c #D78B00",
"#.	c #462D00",
"$.	c #AE7000",
"%.	c #DB8D00",
"&.	c #C47F00",
"*.	c #322100",
"=.	c #F7A000",
"-.	c #170F00",
";.	c #2F1E00",
">.	c #E59400",
",.	c #603E00",
"'.	c #402900",
").	c #FAA200",
"!.	c #986300",
"~.	c #D28800",
"{.	c #191000",
"].	c #BE7B00",
"^.	c #362300",
"/.	c #F59E00",
"(.	c #422A00",
"_.	c #684300",
":.	c #513400",
"                          . + @ @ + .                           ",
"                          # $ % % $ #                           ",
"                        . & % % % % & .                         ",
"                        * = % % % % = * . . . .                 ",
"                        - ; % % % % ; > , ' ' ) !               ",
"                        . ~ % % % % ~ { % % % % ] .             ",
"                          > ^ % % ^ / % % % % % ^ .             ",
"                          . ( _ _ : < % % % % % $ [ # } } | .   ",
"                                    1 2 % % % % 3 4 = % % 5 6   ",
"                                    . 7 % % % % ] 8 % % % % 9 . ",
"                . . . .               0 ~ a a b } % % % % % c _ ",
"              d e f f g h             - i j j k l % % % % % ' ( ",
"            . m n n n n o .         . 7 % % % % p q % % % % b . ",
"            . r n n n n s t         1 u % % % % c + v % % w x   ",
"            y z n n n n n A         < % % % % % $ [ B * * x .   ",
"            . r n n n n s t         1 u % % % % c .             ",
"            . m n n n n o .         . 7 % % % % # .             ",
"              d e f f g h             - i j j k C               ",
"              D E F F G H               . . . .                 ",
"              I n n n n o .                                     ",
"            . J n n n n K L                                     ",
"    M N N O y z n n n n n A P N N Q .                           ",
"  R S n n T U V n n n n n W V n n V X                           ",
". Y n n n n Z ` n n n n  ...n n n n G .                         ",
"+.@.n n n n n #.$.%.%.&.*.=.n n n n =.-.                        ",
";.>.n n n n n ,.. . . . '.).n n n n ).'.                        ",
". !.n n n n ~.{.        . ].n n n n ]..                         ",
"  ^.K n n s Y             m /.n n /.m                           ",
"  . (._._.,..             . :._._.:..                           "};
